ds202_lab4
…
offBP <- offClean %>% group_by(isPurdy, Opponent_Opponent) %>%
  summarise(Mean_Total_YDS = mean(Total_YDS, na.rm = TRUE),
            Sum_Total_YDS = sum(Total_YDS, na.rm = TRUE)) %>%
  arrange(Opponent_Opponent)

## `summarise()` regrouping output by 'isPurdy' (override with `.groups` argument)

offBP

## # A tibble: 26 x 4
## # Groups:   isPurdy [2]
##    isPurdy         Opponent_Opponent Mean_Total_YDS Sum_Total_YDS
##    <chr>           <fct>                      <dbl>         <dbl>
##  1 Brock Purdy     Baylor                     345             345
##  2 Not Brock Purdy Baylor                      28.7           402
##  3 Brock Purdy     Iowa                       310             310
##  4 Not Brock Purdy Iowa                        33.5           435
##  5 Brock Purdy     Kansas                     381             381
##  6 Not Brock Purdy Kansas                      34.4           481
##  7 Brock Purdy     Kansas State               182             182
##  8 Not Brock Purdy Kansas State                18.8           244
##  9 Brock Purdy     Notre Dame                 206             206
## 10 Not Brock Purdy Notre Dame                  22.5           293
## # ... with 16 more rows
…
## `summarise()` ungrouping output (override with `.groups` argument)

defensiveQ3 <- full_join(defensive2018, def2019) %>%
  drop_na(Total_Tackles_2018, Total_Tackles_2019) %>%
  mutate(Tackle_Improvement_Ratio = Total_Tackles_2019 / Total_Tackles_2018, Tackle_Difference = Total_Tackles_2019 - Total_Tackles_2018) %>%
  arrange(desc(Tackle_Difference))

## Joining, by = "Name"

defensiveQ3

## # A tibble: 28 x 5
##    Name    Total_Tackles_20~ Total_Tackles_2~ Tackle_Improveme~ Tackle_Differen~
##    <fct>               <dbl>            <dbl>             <dbl>            <dbl>
##  1 Vance,~              30               81.5              2.72             51.5
##  2 Peters~               4               48.5             12.1              44.5
##  3 Johnso~              29               69                2.38             40  
##  4 White,~              53.5             89                1.66             35.5
##  5 Azunna~               8               32                4                24  
##  6 McDona~               5               27                5.4              22  
##  7 Akers,~               1               11               11                10  
##  8 Wallin~               3               11                3.67              8  
##  9 Young,~              12               20                1.67              8  
## 10 Robert~               1                8                8                 7  
## # ... with 18 more rows
…
